#FIG 3.2  Produced by xfig version 3.2.7b
Landscape
Center
Metric
A4
100.00
Single
-2
1200 2
0 32 #0288d1
0 33 #03a9f4
0 34 #bdbdbd
0 35 #9e9e9e
0 36 #212121
0 37 #757575
0 94 #b3e5fc
6 9585 9225 10395 10035
1 4 0 2 33 7 52 -1 20 0.000 1 0.0000 10011 9630 367 367 9644 9630 10378 9630
2 1 0 5 33 7 50 -1 -1 0.000 1 1 -1 0 0 3
	 9765 9630 9900 9810 10260 9495
-6
