#FIG 3.2  Produced by xfig version 3.2.7b
Landscape
Center
Metric
A4
100.00
Single
-2
1200 2
0 32 #0288d1
0 33 #03a9f4
0 34 #bdbdbd
0 35 #9e9e9e
0 36 #212121
0 37 #757575
0 94 #b3e5fc
6 9585 11520 10395 12330
1 4 0 2 33 7 52 -1 20 0.000 1 0.0000 10011 11925 367 367 9644 11925 10378 11925
2 1 0 5 33 7 50 -1 -1 0.000 1 1 -1 0 0 6
	 9765 12015 9855 11835 9945 11970 10035 11880 10170 12015 10260 11790
-6
