#FIG 3.2  Produced by xfig version 3.2.7b
Landscape
Center
Metric
A4
100.00
Single
-2
1200 2
0 32 #0288d1
0 33 #03a9f4
0 34 #bdbdbd
0 35 #9e9e9e
0 36 #212121
0 37 #757575
0 94 #b3e5fc
6 9540 7020 10350 7830
6 9675 7155 10215 7650
6 9675 7155 10215 7650
2 1 0 5 33 7 51 -1 -1 0.000 1 0 -1 0 0 7
	 9900 7200 10035 7200 10170 7335 10170 7605 9720 7605 9720 7200
	 9900 7200
2 1 0 5 33 7 51 -1 -1 0.000 1 0 -1 0 0 4
	 9855 7200 9855 7380 10035 7380 10035 7200
-6
-6
1 4 0 2 33 7 52 -1 20 0.000 1 0.0000 9935 7413 367 367 9568 7413 10302 7413
-6
