#FIG 3.2  Produced by xfig version 3.2.7b
Landscape
Center
Metric
A4
100.00
Single
-2
1200 2
0 32 #0288d1
0 33 #03a9f4
0 34 #bdbdbd
0 35 #9e9e9e
0 36 #212121
0 37 #757575
0 94 #b3e5fc
6 -6075 0 -1575 900
2 2 0 1 32 32 54 -1 20 0.000 0 0 -1 0 0 5
	 -6075 450 -1575 450 -1575 900 -6075 900 -6075 450
2 4 0 1 32 32 54 -1 20 0.000 0 0 20 0 0 5
	 -1575 900 -6075 900 -6075 0 -1575 0 -1575 900
-6
6 -5895 90 -4770 855
2 4 0 0 0 7 52 -1 20 0.000 0 0 7 0 0 5
	 -4770 855 -5895 855 -5895 90 -4770 90 -4770 855
2 5 0 1 0 -1 51 -1 -1 0.000 0 0 -1 0 0 5
	0 logo.png
	 -5760 225 -4915 225 -4915 773 -5760 773 -5760 225
-6
6 -2475 1440 -1935 1980
1 4 0 3 33 33 57 -1 -1 0.000 1 0.0000 -2211 1710 231 231 -2442 1710 -1980 1710
1 3 0 0 33 33 57 -1 20 0.000 1 0.0000 -2205 1710 127 127 -2205 1710 -2078 1710
-6
6 -2520 2700 -1980 3240
1 4 0 3 33 33 57 -1 -1 0.000 1 0.0000 -2256 2970 231 231 -2487 2970 -2025 2970
1 3 0 0 33 33 57 -1 20 0.000 1 0.0000 -2250 2970 127 127 -2250 2970 -2123 2970
-6
1 4 0 3 33 33 57 -1 -1 0.000 1 0.0000 -2256 3600 231 231 -2487 3600 -2025 3600
2 4 0 5 0 7 49 -1 -1 0.000 0 0 20 0 0 5
	 -1575 8100 -6075 8100 -6075 0 -1575 0 -1575 8100
4 0 7 53 -1 16 24 0.0000 4 375 1410 -4500 630 Options\001
4 0 36 58 -1 16 24 0.0000 4 300 2925 -5760 1845 Enable Location\001
4 0 36 58 -1 16 24 0.0000 4 300 2790 -5760 2520 Distance Units:\001
4 0 36 58 -1 16 24 0.0000 4 300 960 -3780 3735 miles\001
4 0 36 58 -1 16 24 0.0000 4 300 555 -3735 3105 km\001
