#FIG 3.2  Produced by xfig version 3.2.7b
Landscape
Center
Metric
A4
100.00
Single
-2
1200 2
0 32 #0288d1
0 33 #03a9f4
0 34 #bdbdbd
0 35 #9e9e9e
0 36 #212121
0 37 #757575
0 94 #b3e5fc
6 19905 4380 24375 7320
2 1 0 5 0 7 54 -1 20 0.000 0 0 -1 0 0 4
	 19935 5175 19935 7290 24345 7290 24345 5085
2 4 0 5 0 7 55 -1 20 0.000 0 0 20 0 0 5
	 24345 5580 19935 5580 19935 4410 24345 4410 24345 5580
-6
6 23265 4680 24075 5490
1 4 0 2 33 7 52 -1 20 0.000 1 0.0000 23691 5085 367 367 23324 5085 24058 5085
4 0 33 51 -1 0 50 0.0000 4 420 480 23445 5310 +\001
-6
6 23265 5940 24075 6750
6 23400 6075 23940 6525
2 1 0 5 33 7 51 -1 -1 0.000 1 0 -1 0 0 4
	 23476 6494 23881 6494 23881 6202 23497 6202
2 1 0 5 33 7 51 -1 -1 0.000 1 0 -1 0 0 3
	 23543 6111 23453 6201 23543 6291
-6
1 4 0 2 33 7 52 -1 20 0.000 1 0.0000 23677 6345 367 367 23310 6345 24044 6345
-6
2 1 0 15 35 7 49 -1 -1 0.000 0 0 -1 0 0 2
	 22860 5220 22860 6255
2 1 0 27 35 7 53 -1 -1 0.000 0 0 -1 0 0 2
	 22500 5535 20385 5535
4 0 36 53 -1 16 24 0.0000 4 300 2610 20205 5085 Select Interval\001
4 0 36 53 -1 16 24 0.0000 4 300 2295 20205 6885 Time 00 : 00\001
4 0 36 53 -1 16 20 0.0000 4 300 1380 20520 5625 Warm Up\001
4 0 36 53 -1 16 20 0.0000 4 240 1800 20520 6030 Warm Down\001
